%YAML 1.1
%TAG !u! tag:unity3d.com,2011:
--- !u!114 &11400000
MonoBehaviour:
  m_ObjectHideFlags: 0
  m_CorrespondingSourceObject: {fileID: 0}
  m_PrefabInstance: {fileID: 0}
  m_PrefabAsset: {fileID: 0}
  m_GameObject: {fileID: 0}
  m_Enabled: 1
  m_EditorHideFlags: 0
  m_Script: {fileID: 11500000, guid: 4d9b1720db7bd4611913707a517923c6, type: 3}
  m_Name: OutGameRepository
  m_EditorClassIdentifier: 
  dataStore: {fileID: 11400000, guid: 6e732f67d29ab4750987dc535a113e5a, type: 2}
